{
  "_id": "57cf188d8b8b79224e16f584",
  "_type": "image",
  "_extension": "jpeg",
  "title": "image",
  "description": "",
  "_sizes": {
    "small": true,
    "large": true,
    "extraLarge": false
  }
}
