{
  "_id": "58adeca2887221cb43a490e5",
  "_type": "image",
  "description": "",
  "title": "",
  "_sizes": {
    "extraLarge": false,
    "large": false,
    "small": false
  },
  "_extension": "png"
}
