{
  "_id": "57d004125a6c1f40227b7ac7",
  "_type": "image",
  "_extension": "jpeg",
  "title": "image",
  "description": "",
  "_sizes": {
    "small": true,
    "large": true,
    "extraLarge": false
  }
}
