{
  "_id": "581785ee0743116d3685eb18",
  "_type": "image",
  "_extension": "png",
  "title": "STARTER",
  "description": "",
  "_sizes": {
    "small": true,
    "large": true,
    "extraLarge": false
  }
}
