{
  "_id": "580e8c7515496c6bfa5f2b22",
  "_type": "image",
  "_extension": "png",
  "title": "1",
  "description": "",
  "_sizes": {
    "small": true,
    "large": false,
    "extraLarge": false
  }
}
