{
  "_id": "5823c62d61911a54b1b12c5f",
  "_type": "image",
  "_extension": "png",
  "title": "We App",
  "description": "",
  "_sizes": {
    "small": true,
    "large": false,
    "extraLarge": false
  }
}
