{
  "_id": "57cf150d8b8b79224e16f579",
  "_type": "image",
  "_extension": "jpeg",
  "title": "Mail Boxes",
  "description": "",
  "_sizes": {
    "extraLarge": false,
    "large": false,
    "small": true
  }
}
