{
  "_id": "58c32b25bc1025627e602076",
  "_type": "image",
  "description": "",
  "title": "Information Security Hero Image",
  "_sizes": {
    "extraLarge": false,
    "large": true,
    "small": true
  },
  "_extension": "png"
}
