{
  "_id": "5919b823fc26601548bdfd46",
  "_type": "image",
  "_extension": "png",
  "title": "115 Gotham Ave. Community Team",
  "_sizes": {
    "extraLarge": false,
    "large": true,
    "small": true
  }
}
