{
  "_id": "58e45d6843c514cb0cccacde",
  "_type": "image",
  "description": "",
  "title": "See Thru Hero Large",
  "_sizes": {
    "extraLarge": false,
    "large": true,
    "small": true
  },
  "_extension": "png"
}
