[
  {
    "_id": "59f16162ab82dd1023721053",
    "_courseId": "59f16162ab82dd102372104d",
    "_parentId": "59f16162ab82dd1023721052",
    "_sortOrder": 0,
    "__v": 0,
    "_refId": "5816d8ab0743116d3685ea1b",
    "_courseAttainment": {
      "_isEnabled": false
    },
    "_componentsVerticalAlignment": "top",
    "_singleWidthIsCentered": true,
    "_singleWidthComponentLayout": "default",
    "_classes": "",
    "title": "MEMBER NETWORK FEATURES",
    "_type": "block",
    "_courseOrder": "0-0-0"
  },
  {
    "_id": "59f16162ab82dd1023721055",
    "_courseId": "59f16162ab82dd102372104d",
    "_parentId": "59f16162ab82dd1023721052",
    "_sortOrder": 1,
    "__v": 0,
    "_refId": "5816d8ab0743116d3685ea1c",
    "_courseAttainment": {
      "_isEnabled": false
    },
    "_componentsVerticalAlignment": "top",
    "_singleWidthIsCentered": true,
    "_singleWidthComponentLayout": "default",
    "_classes": "",
    "title": "New Block Title",
    "_type": "block",
    "_courseOrder": "0-0-1"
  },
  {
    "_id": "59f16162ab82dd1023721058",
    "_courseId": "59f16162ab82dd102372104d",
    "_parentId": "59f16162ab82dd1023721057",
    "_sortOrder": 0,
    "__v": 0,
    "body": "",
    "_refId": "5816d8ab0743116d3685ea1f",
    "_courseAttainment": {
      "_isEnabled": false
    },
    "_componentsVerticalAlignment": "top",
    "_singleWidthIsCentered": true,
    "_singleWidthComponentLayout": "default",
    "_classes": "",
    "title": "New Block Title",
    "_type": "block",
    "_courseOrder": "0-1-0"
  },
  {
    "_id": "59f16162ab82dd102372105a",
    "_courseId": "59f16162ab82dd102372104d",
    "_parentId": "59f16162ab82dd1023721057",
    "_sortOrder": 1,
    "__v": 0,
    "_refId": "5816d8ab0743116d3685ea20",
    "_courseAttainment": {
      "_isEnabled": false
    },
    "_componentsVerticalAlignment": "top",
    "_singleWidthIsCentered": true,
    "_singleWidthComponentLayout": "default",
    "_classes": "",
    "title": "New Block Title",
    "_type": "block",
    "_courseOrder": "0-1-1"
  },
  {
    "_id": "59f16162ab82dd102372105d",
    "_courseId": "59f16162ab82dd102372104d",
    "_parentId": "59f16162ab82dd1023721057",
    "_sortOrder": 2,
    "__v": 0,
    "_refId": "581930b5c8361168afeebf1b",
    "_courseAttainment": {
      "_isEnabled": false
    },
    "_componentsVerticalAlignment": "top",
    "_singleWidthIsCentered": true,
    "_singleWidthComponentLayout": "default",
    "_classes": "",
    "title": "SINGLE TASK CONFIRMATION BLOCK",
    "_type": "block",
    "_courseOrder": "0-1-2"
  },
  {
    "_id": "59f16163ab82dd1023721086",
    "_courseId": "59f16162ab82dd102372104d",
    "_parentId": "59f16163ab82dd1023721085",
    "_sortOrder": 0,
    "__v": 0,
    "_refId": "5816d9430743116d3685eaa8",
    "_courseAttainment": {
      "_isEnabled": false
    },
    "_componentsVerticalAlignment": "top",
    "_singleWidthIsCentered": true,
    "_singleWidthComponentLayout": "default",
    "_classes": "",
    "title": "New Block Title",
    "_type": "block",
    "_courseOrder": "1-0-0"
  },
  {
    "_id": "59f16163ab82dd1023721089",
    "_courseId": "59f16162ab82dd102372104d",
    "_parentId": "59f16163ab82dd1023721088",
    "_sortOrder": 0,
    "__v": 0,
    "_refId": "5816d9420743116d3685eaa5",
    "_courseAttainment": {
      "_isEnabled": false
    },
    "_componentsVerticalAlignment": "top",
    "_singleWidthIsCentered": true,
    "_singleWidthComponentLayout": "default",
    "_classes": "",
    "title": "Link + MCQ",
    "_type": "block",
    "_courseOrder": "1-1-0"
  },
  {
    "_id": "59f16163ab82dd102372108b",
    "_courseId": "59f16162ab82dd102372104d",
    "_parentId": "59f16163ab82dd1023721088",
    "_sortOrder": 1,
    "__v": 0,
    "displayTitle": "",
    "_refId": "5816d9420743116d3685eaa4",
    "_courseAttainment": {
      "_isEnabled": false
    },
    "_componentsVerticalAlignment": "top",
    "_singleWidthIsCentered": true,
    "_singleWidthComponentLayout": "default",
    "_classes": "",
    "title": "ACTIVITY CHECKLIST - MEMBER NETWORK",
    "_type": "block",
    "_courseOrder": "1-1-1"
  },
  {
    "_id": "59f16163ab82dd102372108e",
    "_courseId": "59f16162ab82dd102372104d",
    "_parentId": "59f16163ab82dd1023721088",
    "_sortOrder": 2,
    "__v": 0,
    "_refId": "5816d9420743116d3685eaa6",
    "_courseAttainment": {
      "_isEnabled": false
    },
    "_componentsVerticalAlignment": "top",
    "_singleWidthIsCentered": true,
    "_singleWidthComponentLayout": "default",
    "_classes": "",
    "title": "New Block Title",
    "_type": "block",
    "_courseOrder": "1-1-2"
  },
  {
    "_id": "59f16163ab82dd1023721092",
    "_courseId": "59f16162ab82dd102372104d",
    "_parentId": "59f16163ab82dd1023721091",
    "_sortOrder": 0,
    "__v": 0,
    "_refId": "5816e1df0743116d3685eac3",
    "_courseAttainment": {
      "_isEnabled": false
    },
    "_componentsVerticalAlignment": "top",
    "_singleWidthIsCentered": true,
    "_singleWidthComponentLayout": "default",
    "_classes": "",
    "title": "New Block Title",
    "_type": "block",
    "_courseOrder": "1-2-0"
  },
  {
    "_id": "59f16163ab82dd1023721098",
    "_courseId": "59f16162ab82dd102372104d",
    "_parentId": "59f16163ab82dd1023721097",
    "_sortOrder": 0,
    "__v": 0,
    "displayTitle": "",
    "_refId": "58166edd0743116d3685e7b2",
    "_courseAttainment": {
      "_isEnabled": false
    },
    "_componentsVerticalAlignment": "top",
    "_singleWidthIsCentered": true,
    "_singleWidthComponentLayout": "default",
    "_classes": "",
    "title": "COMMON SPACE",
    "_type": "block",
    "_courseOrder": "2-0-0"
  },
  {
    "_id": "59f16163ab82dd102372109a",
    "_courseId": "59f16162ab82dd102372104d",
    "_parentId": "59f16163ab82dd1023721097",
    "_sortOrder": 1,
    "__v": 0,
    "displayTitle": "THE HALLS ARE ALIVE WITH THE SOUND OF WEWORK",
    "body": "",
    "_refId": "5818cb33c8361168afeebeb5",
    "_courseAttainment": {
      "_isEnabled": false
    },
    "_componentsVerticalAlignment": "top",
    "_singleWidthIsCentered": true,
    "_singleWidthComponentLayout": "default",
    "_classes": "",
    "_displayTitleSettings": {
      "_textAlign": "center",
      "_fontSize": "65"
    },
    "title": "SOUNDS OF THE HUSTLE",
    "_type": "block",
    "_courseOrder": "2-0-1"
  },
  {
    "_id": "59f16163ab82dd102372109d",
    "_courseId": "59f16162ab82dd102372104d",
    "_parentId": "59f16163ab82dd102372109c",
    "_sortOrder": 0,
    "__v": 0,
    "displayTitle": "",
    "body": "<p>We request that you limit your time in the phone booths to 30 minutes to allow for everyone in the Community to take advantage of this amenity. Using phone booths as a private office space for long periods or leaving your belongings inside even for a short while prevents others from using this resource.</p>",
    "_refId": "5818cef9c8361168afeebec0",
    "_courseAttainment": {
      "_isEnabled": false
    },
    "_componentsVerticalAlignment": "top",
    "_singleWidthIsCentered": true,
    "_singleWidthComponentLayout": "default",
    "_classes": "",
    "title": "PHONEBOOTH ",
    "_type": "block",
    "_courseOrder": "2-1-0"
  },
  {
    "_id": "59f16163ab82dd10237210a1",
    "_courseId": "59f16162ab82dd102372104d",
    "_parentId": "59f16163ab82dd10237210a0",
    "_sortOrder": 0,
    "__v": 0,
    "displayTitle": "",
    "_refId": "58584d38a84fe32a7c1e5e7f",
    "_courseAttainment": {
      "_isEnabled": false
    },
    "_componentsVerticalAlignment": "top",
    "_singleWidthIsCentered": true,
    "_singleWidthComponentLayout": "default",
    "_classes": "",
    "title": "ADDITIONAL INFORMATION",
    "_type": "block",
    "_courseOrder": "2-2-0"
  },
  {
    "_id": "59f16163ab82dd10237210a4",
    "_courseId": "59f16162ab82dd102372104d",
    "_parentId": "59f16163ab82dd10237210a3",
    "_sortOrder": 0,
    "__v": 0,
    "body": "",
    "_refId": "58166edd0743116d3685e7b5",
    "_courseAttainment": {
      "_isEnabled": false
    },
    "_componentsVerticalAlignment": "top",
    "_singleWidthIsCentered": true,
    "_singleWidthComponentLayout": "default",
    "_classes": "",
    "title": "New Block Title",
    "_type": "block",
    "_courseOrder": "2-3-0"
  },
  {
    "_id": "59f16163ab82dd10237210a6",
    "_courseId": "59f16162ab82dd102372104d",
    "_parentId": "59f16163ab82dd10237210a3",
    "_sortOrder": 1,
    "__v": 0,
    "_refId": "5818dd05c8361168afeebee6",
    "_courseAttainment": {
      "_isEnabled": false
    },
    "_componentsVerticalAlignment": "top",
    "_singleWidthIsCentered": true,
    "_singleWidthComponentLayout": "default",
    "_classes": "",
    "title": "MCQ+ MCQ",
    "_type": "block",
    "_courseOrder": "2-3-1"
  },
  {
    "_id": "59f16163ab82dd10237210a9",
    "_courseId": "59f16162ab82dd102372104d",
    "_parentId": "59f16163ab82dd10237210a3",
    "_sortOrder": 2,
    "__v": 0,
    "displayTitle": "",
    "_refId": "5818dbcdc8361168afeebede",
    "_courseAttainment": {
      "_isEnabled": false
    },
    "_componentsVerticalAlignment": "top",
    "_singleWidthIsCentered": true,
    "_singleWidthComponentLayout": "default",
    "_classes": "",
    "title": "TASK BLOCK w/slider",
    "_type": "block",
    "_courseOrder": "2-3-2"
  },
  {
    "_id": "59f16164ab82dd10237210d1",
    "_courseId": "59f16162ab82dd102372104d",
    "_parentId": "59f16164ab82dd10237210d0",
    "_sortOrder": 0,
    "__v": 0,
    "_refId": "581650b90743116d3685e64b",
    "_courseAttainment": {
      "_isEnabled": false
    },
    "_componentsVerticalAlignment": "top",
    "_singleWidthIsCentered": true,
    "_singleWidthComponentLayout": "default",
    "_classes": "",
    "title": "MAIL AND PRINT FLIPCARDS",
    "_type": "block",
    "_courseOrder": "3-0-0"
  },
  {
    "_id": "59f16164ab82dd10237210d4",
    "_courseId": "59f16162ab82dd102372104d",
    "_parentId": "59f16164ab82dd10237210d3",
    "_sortOrder": 0,
    "__v": 0,
    "_refId": "5823aaba61911a54b1b12c2b",
    "_courseAttainment": {
      "_isEnabled": false
    },
    "_componentsVerticalAlignment": "top",
    "_singleWidthIsCentered": true,
    "_singleWidthComponentLayout": "default",
    "_classes": "",
    "title": "MAIL AND PRINT HOTSPOTS",
    "_type": "block",
    "_courseOrder": "3-1-0"
  },
  {
    "_id": "59f16164ab82dd10237210d7",
    "_courseId": "59f16162ab82dd102372104d",
    "_parentId": "59f16164ab82dd10237210d6",
    "_sortOrder": 0,
    "__v": 0,
    "displayTitle": "",
    "_refId": "5823ee1b61911a54b1b12c80",
    "_courseAttainment": {
      "_isEnabled": false
    },
    "_componentsVerticalAlignment": "top",
    "_singleWidthIsCentered": true,
    "_singleWidthComponentLayout": "default",
    "_classes": "",
    "title": "TASK BLOCK",
    "_type": "block",
    "_courseOrder": "3-2-0"
  },
  {
    "_id": "59f16164ab82dd10237210da",
    "_courseId": "59f16162ab82dd102372104d",
    "_parentId": "59f16164ab82dd10237210d6",
    "_sortOrder": 1,
    "__v": 0,
    "displayTitle": "",
    "_refId": "5823ee1b61911a54b1b12c81",
    "_courseAttainment": {
      "_isEnabled": false
    },
    "_componentsVerticalAlignment": "top",
    "_singleWidthIsCentered": true,
    "_singleWidthComponentLayout": "default",
    "_classes": "",
    "title": "TASK BLOCK w/slider",
    "_type": "block",
    "_courseOrder": "3-2-1"
  },
  {
    "_id": "59f16164ab82dd10237210f2",
    "_courseId": "59f16162ab82dd102372104d",
    "_parentId": "59f16164ab82dd10237210f1",
    "_sortOrder": 0,
    "__v": 0,
    "_refId": "5824cc5461911a54b1b12e35",
    "_courseAttainment": {
      "_isEnabled": false
    },
    "_componentsVerticalAlignment": "top",
    "_singleWidthIsCentered": true,
    "_singleWidthComponentLayout": "default",
    "_classes": "",
    "title": "MAIL AND PRINT HOTSPOTS",
    "_type": "block",
    "_courseOrder": "4-0-0"
  },
  {
    "_id": "59f16164ab82dd10237210f5",
    "_courseId": "59f16162ab82dd102372104d",
    "_parentId": "59f16164ab82dd10237210f4",
    "_sortOrder": 0,
    "__v": 0,
    "_refId": "5823bf8061911a54b1b12c35",
    "_courseAttainment": {
      "_isEnabled": false
    },
    "_componentsVerticalAlignment": "top",
    "_singleWidthIsCentered": true,
    "_singleWidthComponentLayout": "default",
    "_classes": "",
    "title": "WIFI",
    "_type": "block",
    "_courseOrder": "4-1-0"
  },
  {
    "_id": "59f16164ab82dd10237210f7",
    "_courseId": "59f16162ab82dd102372104d",
    "_parentId": "59f16164ab82dd10237210f4",
    "_sortOrder": 1,
    "__v": 0,
    "_refId": "5824c4f361911a54b1b12e16",
    "_courseAttainment": {
      "_isEnabled": false
    },
    "_componentsVerticalAlignment": "top",
    "_singleWidthIsCentered": true,
    "_singleWidthComponentLayout": "default",
    "_classes": "",
    "title": "New Block Title",
    "_type": "block",
    "_courseOrder": "4-1-1"
  },
  {
    "_id": "59f16164ab82dd10237210fa",
    "_courseId": "59f16162ab82dd102372104d",
    "_parentId": "59f16164ab82dd10237210f9",
    "_sortOrder": 0,
    "__v": 0,
    "_refId": "585854eea84fe32a7c1e5e8d",
    "_courseAttainment": {
      "_isEnabled": false
    },
    "_componentsVerticalAlignment": "top",
    "_singleWidthIsCentered": true,
    "_singleWidthComponentLayout": "default",
    "_classes": "",
    "title": "CAN I WORK FROM ANOTHER WEWORK SPACE?",
    "_type": "block",
    "_courseOrder": "4-2-0"
  },
  {
    "_id": "59f16164ab82dd10237210fd",
    "_courseId": "59f16162ab82dd102372104d",
    "_parentId": "59f16164ab82dd10237210fc",
    "_sortOrder": 0,
    "__v": 0,
    "_refId": "5823bf8061911a54b1b12c38",
    "_courseAttainment": {
      "_isEnabled": false
    },
    "_componentsVerticalAlignment": "top",
    "_singleWidthIsCentered": true,
    "_singleWidthComponentLayout": "default",
    "_classes": "",
    "title": "New Block Title",
    "_type": "block",
    "_courseOrder": "4-3-0"
  },
  {
    "_id": "59f16165ab82dd1023721101",
    "_courseId": "59f16162ab82dd102372104d",
    "_parentId": "59f16164ab82dd1023721100",
    "_sortOrder": 0,
    "__v": 0,
    "displayTitle": "",
    "_refId": "5823bf8061911a54b1b12c36",
    "_courseAttainment": {
      "_isEnabled": false
    },
    "_componentsVerticalAlignment": "top",
    "_singleWidthIsCentered": true,
    "_singleWidthComponentLayout": "default",
    "_classes": "",
    "title": "TASK BLOCK",
    "_type": "block",
    "_courseOrder": "4-4-0"
  },
  {
    "_id": "59f16165ab82dd1023721104",
    "_courseId": "59f16162ab82dd102372104d",
    "_parentId": "59f16164ab82dd1023721100",
    "_sortOrder": 1,
    "__v": 0,
    "displayTitle": "",
    "_refId": "5823bf8061911a54b1b12c37",
    "_courseAttainment": {
      "_isEnabled": false
    },
    "_componentsVerticalAlignment": "top",
    "_singleWidthIsCentered": true,
    "_singleWidthComponentLayout": "default",
    "_classes": "",
    "title": "TASK BLOCK w/slider",
    "_type": "block",
    "_courseOrder": "4-4-1"
  }
]
