{
  "_id": "57fc3c10715745313fa21bd2",
  "_type": "image",
  "_extension": "png",
  "title": "image",
  "description": "",
  "_sizes": {
    "small": true,
    "large": false,
    "extraLarge": false
  }
}
