{
  "_id": "580e6b7615496c6bfa5f2acb",
  "_type": "image",
  "_extension": "png",
  "title": "image",
  "description": "",
  "_sizes": {
    "small": false,
    "large": false,
    "extraLarge": false
  }
}
