[
  {
    "_id": "59f11ea9ab82dd1023720efc",
    "_courseId": "59f0e01aab82dd1023720d6f",
    "_parentId": "59f0e01aab82dd1023720d6f",
    "_sortOrder": 0,
    "__v": 0,
    "_refId": "59f11ea9ab82dd1023720efc",
    "displayTitle": "About Me",
    "duration": "3 min",
    "description": "<p>Bio and Resume</p>",
    "_swipeMenu": {
      "_shouldShowProgressBarsOnMenus": true,
      "_mobileBackgroundImage": {
        "_repeat": false,
        "_fixed": false,
        "_position": "center",
        "_size": "cover"
      },
      "_backgroundImage": {
        "_repeat": false,
        "_fixed": false,
        "_position": "center",
        "_size": "cover"
      },
      "_heroImage": {
        "_contentWidth": 70,
        "textAlignment": "left",
        "layout": "center"
      },
      "_shouldHideDisabledControl": false,
      "_shouldShowControlsOnHover": false,
      "_shouldAlwaysShowItems": false,
      "_shouldShowControlsOnBottom": false,
      "_shouldDisableItemScaling": false,
      "_shouldDisableDetailOnHover": false
    },
    "_standardMenu": {
      "_shouldShowIconOnMenuItems": true,
      "_shouldShowProgressBarsOnMenus": true,
      "_mobileBackgroundImage": {
        "_repeat": false,
        "_fixed": false,
        "_position": "center",
        "_size": "cover"
      },
      "_backgroundImage": {
        "_repeat": false,
        "_fixed": false,
        "_position": "center",
        "_size": "cover"
      },
      "_heroImage": {
        "_contentWidth": 70,
        "textAlignment": "left",
        "layout": "center"
      }
    },
    "_mapMenu": {
      "_position": {
        "_top": 50,
        "_left": 50
      }
    },
    "_coverMenu": {
      "_shouldShowProgressBarsOnMenus": true,
      "_coverButtonText": "View"
    },
    "_boxMenu": {
      "_shouldShowProgressBarsOnMenus": true,
      "_itemsPerRowMedium": 2,
      "_itemsPerRowLarge": 2,
      "_mobileBackgroundImage": {
        "_repeat": false,
        "_fixed": false,
        "_position": "center",
        "_size": "cover"
      },
      "_backgroundImage": {
        "_repeat": false,
        "_fixed": false,
        "_position": "center",
        "_size": "cover"
      },
      "_heroImage": {
        "_contentWidth": 70,
        "textAlignment": "left",
        "layout": "center"
      },
      "src": {
        "_size": "small",
        "_type": "image",
        "_extension": "jpeg",
        "_id": "59f125c6ab82dd1023720f22"
      }
    },
    "_contentLocking": {
      "_requiredAmount": 0,
      "_requiredCompleteIds": [],
      "_shouldDisableNotifyOnUnlock": false,
      "_lockingType": "contentObject",
      "_isEnabled": false
    },
    "_mobileBackgroundImage": {
      "_repeat": false,
      "_fixed": false,
      "_position": "center",
      "_size": "cover"
    },
    "_backgroundImage": {
      "_repeat": false,
      "_fixed": false,
      "_position": "center",
      "_size": "cover"
    },
    "_heroImage": {
      "title": "Derin Tolu",
      "_floatingGraphic": {
        "_hideOnMobile": false,
        "_offset": {
          "_left": "280%",
          "_top": "42%"
        },
        "_position": "top",
        "src": null
      },
      "_graphic": {
        "_small": {
          "src": {
            "_size": "small",
            "_type": "image",
            "_extension": "jpeg",
            "_id": "59f35274ab82dd1023721228"
          }
        },
        "_large": {
          "src": {
            "_id": "59f35274ab82dd1023721228",
            "_extension": "jpeg",
            "_type": "image",
            "_size": "large"
          }
        },
        "_extraLarge": {
          "src": {
            "_id": "59f35274ab82dd1023721228",
            "_extension": "jpeg",
            "_type": "image",
            "_size": "extraLarge"
          }
        }
      },
      "_contentWidth": 70,
      "textAlignment": "center",
      "layout": "center",
      "_isEnabled": false
    },
    "_hidePageHeader": true,
    "_categories": [],
    "durationLabel": "Read Time",
    "linkText": "VIEW  →",
    "_graphic": {
      "_offset": {
        "_left": "0",
        "_top": "0"
      },
      "_position": "bottom-right",
      "_isFloatingGraphic": false,
      "_hideOnMobile": false,
      "_isOverridingTheme": false
    },
    "title": "About Me",
    "_type": "page",
    "_courseOrder": "0"
  },
  {
    "_id": "59f144c8ab82dd1023721020",
    "_courseId": "59f0e01aab82dd1023720d6f",
    "_parentId": "5a04c48765cac9632236a00e",
    "_sortOrder": 0,
    "__v": 0,
    "_refId": "59f144c8ab82dd1023721020",
    "displayTitle": "Project: Health and Safety Compliance",
    "_swipeMenu": {
      "_shouldShowProgressBarsOnMenus": true,
      "_mobileBackgroundImage": {
        "_repeat": false,
        "_fixed": false,
        "_position": "center",
        "_size": "cover"
      },
      "_backgroundImage": {
        "_repeat": false,
        "_fixed": false,
        "_position": "center",
        "_size": "cover"
      },
      "_heroImage": {
        "_contentWidth": 70,
        "textAlignment": "left",
        "layout": "center"
      },
      "_shouldHideDisabledControl": false,
      "_shouldShowControlsOnHover": false,
      "_shouldAlwaysShowItems": false,
      "_shouldShowControlsOnBottom": false,
      "_shouldDisableItemScaling": false,
      "_shouldDisableDetailOnHover": false
    },
    "_standardMenu": {
      "_shouldShowIconOnMenuItems": true,
      "_shouldShowProgressBarsOnMenus": true,
      "_mobileBackgroundImage": {
        "_repeat": false,
        "_fixed": false,
        "_position": "center",
        "_size": "cover"
      },
      "_backgroundImage": {
        "_repeat": false,
        "_fixed": false,
        "_position": "center",
        "_size": "cover"
      },
      "_heroImage": {
        "_contentWidth": 70,
        "textAlignment": "left",
        "layout": "center"
      }
    },
    "_mapMenu": {
      "_position": {
        "_top": 50,
        "_left": 50
      }
    },
    "_coverMenu": {
      "_shouldShowProgressBarsOnMenus": true,
      "_coverButtonText": "View"
    },
    "_boxMenu": {
      "_shouldShowProgressBarsOnMenus": true,
      "_itemsPerRowMedium": 2,
      "_itemsPerRowLarge": 2,
      "_mobileBackgroundImage": {
        "_repeat": false,
        "_fixed": false,
        "_position": "center",
        "_size": "cover"
      },
      "_backgroundImage": {
        "_repeat": false,
        "_fixed": false,
        "_position": "center",
        "_size": "cover"
      },
      "_heroImage": {
        "_contentWidth": 70,
        "textAlignment": "left",
        "layout": "center"
      },
      "src": {
        "_size": "small",
        "_type": "image",
        "_extension": "jpeg",
        "_id": "59f14b50ab82dd102372102f"
      }
    },
    "_contentLocking": {
      "_requiredAmount": 0,
      "_requiredCompleteIds": [],
      "_shouldDisableNotifyOnUnlock": false,
      "_lockingType": "contentObject",
      "_isEnabled": false
    },
    "_mobileBackgroundImage": {
      "_repeat": false,
      "_fixed": false,
      "_position": "center",
      "_size": "cover"
    },
    "_backgroundImage": {
      "_repeat": false,
      "_fixed": false,
      "_position": "center",
      "_size": "cover"
    },
    "_heroImage": {
      "_floatingGraphic": {
        "_hideOnMobile": false,
        "_offset": {
          "_left": "0",
          "_top": "0"
        },
        "_position": "bottom-right"
      },
      "_contentWidth": 70,
      "textAlignment": "left",
      "layout": "center",
      "_isEnabled": false
    },
    "_hidePageHeader": false,
    "_categories": [],
    "durationLabel": "Duration",
    "linkText": "View",
    "_graphic": {
      "_offset": {
        "_left": "0",
        "_top": "0"
      },
      "_position": "bottom-right",
      "_isFloatingGraphic": false,
      "_hideOnMobile": false,
      "_isOverridingTheme": false
    },
    "title": "Project: Health and Safety Compliance",
    "_type": "page",
    "_courseOrder": "1"
  },
  {
    "_id": "59f0e01aab82dd1023720d8b",
    "_courseId": "59f0e01aab82dd1023720d6f",
    "_parentId": "5a04c48765cac9632236a00e",
    "_sortOrder": 1,
    "__v": 0,
    "_refId": "59ad8b5f77c172c0402e99a3",
    "displayTitle": "Project: New Member Course Design",
    "_swipeMenu": {
      "_shouldShowProgressBarsOnMenus": true,
      "_mobileBackgroundImage": {
        "_repeat": false,
        "_fixed": false,
        "_position": "center",
        "_size": "cover"
      },
      "_backgroundImage": {
        "_repeat": false,
        "_fixed": false,
        "_position": "center",
        "_size": "cover"
      },
      "_heroImage": {
        "_contentWidth": 70,
        "textAlignment": "left",
        "layout": "center"
      },
      "_shouldHideDisabledControl": false,
      "_shouldShowControlsOnHover": false,
      "_shouldAlwaysShowItems": false,
      "_shouldShowControlsOnBottom": false,
      "_shouldDisableItemScaling": false,
      "_shouldDisableDetailOnHover": false
    },
    "_standardMenu": {
      "_shouldShowIconOnMenuItems": true,
      "_shouldShowProgressBarsOnMenus": true,
      "_mobileBackgroundImage": {
        "_repeat": false,
        "_fixed": false,
        "_position": "center",
        "_size": "cover"
      },
      "_backgroundImage": {
        "_repeat": false,
        "_fixed": false,
        "_position": "center",
        "_size": "cover"
      },
      "_heroImage": {
        "_contentWidth": 70,
        "textAlignment": "left",
        "layout": "center"
      }
    },
    "_mapMenu": {
      "_position": {
        "_top": 50,
        "_left": 50
      }
    },
    "_coverMenu": {
      "_shouldShowProgressBarsOnMenus": true,
      "_coverButtonText": "View"
    },
    "_boxMenu": {
      "_shouldShowProgressBarsOnMenus": true,
      "_itemsPerRowMedium": 2,
      "_itemsPerRowLarge": 2,
      "_mobileBackgroundImage": {
        "_repeat": false,
        "_fixed": false,
        "_position": "center",
        "_size": "cover"
      },
      "_backgroundImage": {
        "_repeat": false,
        "_fixed": false,
        "_position": "center",
        "_size": "cover"
      },
      "_heroImage": {
        "_contentWidth": 70,
        "textAlignment": "left",
        "layout": "center"
      },
      "src": {
        "_size": "small",
        "_type": "image",
        "_extension": "jpeg",
        "_id": "59f14629ab82dd102372102c"
      }
    },
    "_contentLocking": {
      "_requiredAmount": 0,
      "_requiredCompleteIds": [],
      "_shouldDisableNotifyOnUnlock": false,
      "_lockingType": "contentObject",
      "_isEnabled": false
    },
    "_mobileBackgroundImage": {
      "_repeat": false,
      "_fixed": false,
      "_position": "center",
      "_size": "cover"
    },
    "_backgroundImage": {
      "_repeat": false,
      "_fixed": false,
      "_position": "center",
      "_size": "cover"
    },
    "_heroImage": {
      "_floatingGraphic": {
        "_hideOnMobile": false,
        "_offset": {
          "_left": "0",
          "_top": "0"
        },
        "_position": "bottom-right"
      },
      "_contentWidth": 70,
      "textAlignment": "left",
      "layout": "center",
      "_isEnabled": false
    },
    "_hidePageHeader": true,
    "_categories": [],
    "durationLabel": "",
    "linkText": "  View    →",
    "_graphic": {
      "_offset": {
        "_left": "0",
        "_top": "0"
      },
      "_position": "bottom-right",
      "_isFloatingGraphic": false,
      "_hideOnMobile": false,
      "_isOverridingTheme": false
    },
    "title": "Project: New Member Course Design",
    "_type": "page",
    "_courseOrder": "2"
  },
  {
    "_id": "5a04c48765cac9632236a00e",
    "_courseId": "59f0e01aab82dd1023720d6f",
    "_parentId": "59f0e01aab82dd1023720d6f",
    "_sortOrder": 1,
    "__v": 0,
    "_refId": "5a04c48765cac9632236a00e",
    "displayTitle": "Professional Projects",
    "description": "<p>Case studies of select projects from my work portfolio.</p>",
    "_swipeMenu": {
      "_shouldShowProgressBarsOnMenus": true,
      "_mobileBackgroundImage": {
        "_repeat": false,
        "_fixed": false,
        "_position": "center",
        "_size": "cover"
      },
      "_backgroundImage": {
        "_repeat": false,
        "_fixed": false,
        "_position": "center",
        "_size": "cover"
      },
      "_heroImage": {
        "_contentWidth": 70,
        "textAlignment": "left",
        "layout": "center"
      },
      "_shouldHideDisabledControl": false,
      "_shouldShowControlsOnHover": false,
      "_shouldAlwaysShowItems": false,
      "_shouldShowControlsOnBottom": false,
      "_shouldDisableItemScaling": false,
      "_shouldDisableDetailOnHover": false
    },
    "_standardMenu": {
      "_shouldShowIconOnMenuItems": true,
      "_shouldShowProgressBarsOnMenus": true,
      "_mobileBackgroundImage": {
        "_repeat": false,
        "_fixed": false,
        "_position": "center",
        "_size": "cover"
      },
      "_backgroundImage": {
        "_repeat": false,
        "_fixed": false,
        "_position": "center",
        "_size": "cover"
      },
      "_heroImage": {
        "_contentWidth": 70,
        "textAlignment": "left",
        "layout": "center"
      }
    },
    "_mapMenu": {
      "_position": {
        "_top": 50,
        "_left": 50
      }
    },
    "_coverMenu": {
      "_shouldShowProgressBarsOnMenus": true,
      "_coverButtonText": "View"
    },
    "_boxMenu": {
      "_shouldShowProgressBarsOnMenus": true,
      "_itemsPerRowMedium": 2,
      "_itemsPerRowLarge": 2,
      "_mobileBackgroundImage": {
        "_repeat": false,
        "_fixed": false,
        "_position": "center",
        "_size": "cover"
      },
      "_backgroundImage": {
        "_repeat": false,
        "_fixed": false,
        "_position": "center",
        "_size": "cover"
      },
      "_heroImage": {
        "_contentWidth": 70,
        "textAlignment": "left",
        "layout": "center"
      },
      "src": {
        "_size": "small",
        "_type": "image",
        "_extension": "png",
        "_id": "5a051b1e65cac9632236a092"
      }
    },
    "_contentLocking": {
      "_requiredAmount": 0,
      "_requiredCompleteIds": [],
      "_shouldDisableNotifyOnUnlock": false,
      "_lockingType": "contentObject",
      "_isEnabled": false
    },
    "_mobileBackgroundImage": {
      "_repeat": false,
      "_fixed": false,
      "_position": "center",
      "_size": "cover"
    },
    "_backgroundImage": {
      "_repeat": false,
      "_fixed": false,
      "_position": "center",
      "_size": "cover"
    },
    "_heroImage": {
      "_floatingGraphic": {
        "_hideOnMobile": false,
        "_offset": {
          "_left": "0",
          "_top": "0"
        },
        "_position": "bottom-right"
      },
      "_contentWidth": 70,
      "textAlignment": "left",
      "layout": "center",
      "_isEnabled": false
    },
    "_hidePageHeader": false,
    "_categories": [],
    "durationLabel": "Duration",
    "linkText": "View",
    "_graphic": {
      "_offset": {
        "_left": "0",
        "_top": "0"
      },
      "_position": "bottom-right",
      "_isFloatingGraphic": false,
      "_hideOnMobile": false,
      "_isOverridingTheme": false
    },
    "title": "Professional Projects",
    "_type": "menu"
  },
  {
    "_id": "59f0e01aab82dd1023720d82",
    "_courseId": "59f0e01aab82dd1023720d6f",
    "_parentId": "5a04c48765cac9632236a00e",
    "_sortOrder": 2,
    "__v": 0,
    "displayTitle": "Project: Learner Experience Design <br>",
    "description": "",
    "duration": "5 min",
    "_refId": "59a17143408db6c86f3ca159",
    "_swipeMenu": {
      "_shouldShowProgressBarsOnMenus": true,
      "_mobileBackgroundImage": {
        "_repeat": false,
        "_fixed": false,
        "_position": "center",
        "_size": "cover"
      },
      "_backgroundImage": {
        "_repeat": false,
        "_fixed": false,
        "_position": "center",
        "_size": "cover"
      },
      "_heroImage": {
        "_contentWidth": 70,
        "textAlignment": "left",
        "layout": "center"
      },
      "_shouldHideDisabledControl": false,
      "_shouldShowControlsOnHover": false,
      "_shouldAlwaysShowItems": false,
      "_shouldShowControlsOnBottom": false,
      "_shouldDisableItemScaling": false,
      "_shouldDisableDetailOnHover": false
    },
    "_standardMenu": {
      "_shouldShowIconOnMenuItems": true,
      "_shouldShowProgressBarsOnMenus": true,
      "_mobileBackgroundImage": {
        "_repeat": false,
        "_fixed": false,
        "_position": "center",
        "_size": "cover"
      },
      "_backgroundImage": {
        "_repeat": false,
        "_fixed": false,
        "_position": "center",
        "_size": "cover"
      },
      "_heroImage": {
        "_contentWidth": 70,
        "textAlignment": "left",
        "layout": "center"
      }
    },
    "_mapMenu": {
      "_position": {
        "_top": 50,
        "_left": 50
      }
    },
    "_coverMenu": {
      "_shouldShowProgressBarsOnMenus": true,
      "_coverButtonText": "View"
    },
    "_boxMenu": {
      "_shouldShowProgressBarsOnMenus": true,
      "_itemsPerRowMedium": 2,
      "_itemsPerRowLarge": 2,
      "_mobileBackgroundImage": {
        "_repeat": false,
        "_fixed": false,
        "_position": "center",
        "_size": "cover"
      },
      "_backgroundImage": {
        "_repeat": false,
        "_fixed": false,
        "_position": "center",
        "_size": "cover"
      },
      "_heroImage": {
        "_contentWidth": 70,
        "textAlignment": "left",
        "layout": "center"
      },
      "src": {
        "_size": "small",
        "_type": "image",
        "_extension": "jpeg",
        "_id": "59f12a52ab82dd1023720f2a"
      }
    },
    "_contentLocking": {
      "_requiredAmount": 0,
      "_requiredCompleteIds": [],
      "_shouldDisableNotifyOnUnlock": false,
      "_lockingType": "contentObject",
      "_isEnabled": false
    },
    "_mobileBackgroundImage": {
      "_repeat": false,
      "_fixed": false,
      "_position": "center",
      "_size": "cover"
    },
    "_backgroundImage": {
      "_repeat": false,
      "_fixed": false,
      "_position": "center",
      "_size": "cover"
    },
    "_heroImage": {
      "_floatingGraphic": {
        "_hideOnMobile": false,
        "_offset": {
          "_left": "0",
          "_top": "0"
        },
        "_position": "bottom-right"
      },
      "_contentWidth": 70,
      "textAlignment": "left",
      "layout": "center",
      "_isEnabled": true
    },
    "_hidePageHeader": false,
    "_categories": [],
    "durationLabel": "Read Time",
    "linkText": "  VIEW    →",
    "_graphic": {
      "_offset": {
        "_left": "0",
        "_top": "0"
      },
      "_position": "bottom-right",
      "_isFloatingGraphic": false,
      "_hideOnMobile": false,
      "_isOverridingTheme": false
    },
    "title": "Project: Learner Experience Design ",
    "_type": "page",
    "_courseOrder": "3"
  },
  {
    "_id": "5a04c50465cac9632236a016",
    "_courseId": "59f0e01aab82dd1023720d6f",
    "_parentId": "59f0e01aab82dd1023720d6f",
    "_sortOrder": 2,
    "__v": 0,
    "_refId": "5a04c50465cac9632236a016",
    "displayTitle": "Passion Projects",
    "_swipeMenu": {
      "_shouldShowProgressBarsOnMenus": true,
      "_mobileBackgroundImage": {
        "_repeat": false,
        "_fixed": false,
        "_position": "center",
        "_size": "cover"
      },
      "_backgroundImage": {
        "_repeat": false,
        "_fixed": false,
        "_position": "center",
        "_size": "cover"
      },
      "_heroImage": {
        "_contentWidth": 70,
        "textAlignment": "left",
        "layout": "center"
      },
      "_shouldHideDisabledControl": false,
      "_shouldShowControlsOnHover": false,
      "_shouldAlwaysShowItems": false,
      "_shouldShowControlsOnBottom": false,
      "_shouldDisableItemScaling": false,
      "_shouldDisableDetailOnHover": false
    },
    "_standardMenu": {
      "_shouldShowIconOnMenuItems": true,
      "_shouldShowProgressBarsOnMenus": true,
      "_mobileBackgroundImage": {
        "_repeat": false,
        "_fixed": false,
        "_position": "center",
        "_size": "cover"
      },
      "_backgroundImage": {
        "_repeat": false,
        "_fixed": false,
        "_position": "center",
        "_size": "cover"
      },
      "_heroImage": {
        "_contentWidth": 70,
        "textAlignment": "left",
        "layout": "center"
      }
    },
    "_mapMenu": {
      "_position": {
        "_top": 50,
        "_left": 50
      }
    },
    "_coverMenu": {
      "_shouldShowProgressBarsOnMenus": true,
      "_coverButtonText": "View"
    },
    "_boxMenu": {
      "_shouldShowProgressBarsOnMenus": true,
      "_itemsPerRowMedium": 2,
      "_itemsPerRowLarge": 2,
      "_mobileBackgroundImage": {
        "_repeat": false,
        "_fixed": false,
        "_position": "center",
        "_size": "cover"
      },
      "_backgroundImage": {
        "_repeat": false,
        "_fixed": false,
        "_position": "center",
        "_size": "cover"
      },
      "_heroImage": {
        "_contentWidth": 70,
        "textAlignment": "left",
        "layout": "center"
      },
      "src": {
        "_size": "small",
        "_type": "image",
        "_extension": "jpeg",
        "_id": "5a0516c765cac9632236a08d"
      }
    },
    "_contentLocking": {
      "_requiredAmount": 0,
      "_requiredCompleteIds": [],
      "_shouldDisableNotifyOnUnlock": false,
      "_lockingType": "contentObject",
      "_isEnabled": false
    },
    "_mobileBackgroundImage": {
      "_repeat": false,
      "_fixed": false,
      "_position": "center",
      "_size": "cover"
    },
    "_backgroundImage": {
      "_repeat": false,
      "_fixed": false,
      "_position": "center",
      "_size": "cover"
    },
    "_heroImage": {
      "_floatingGraphic": {
        "_hideOnMobile": false,
        "_offset": {
          "_left": "0",
          "_top": "0"
        },
        "_position": "bottom-right"
      },
      "_contentWidth": 70,
      "textAlignment": "left",
      "layout": "center",
      "_isEnabled": false
    },
    "_hidePageHeader": false,
    "_categories": [],
    "durationLabel": "Duration",
    "linkText": "View",
    "_graphic": {
      "_offset": {
        "_left": "0",
        "_top": "0"
      },
      "_position": "bottom-right",
      "_isFloatingGraphic": false,
      "_hideOnMobile": false,
      "_isOverridingTheme": false
    },
    "title": "Passion Projects",
    "_type": "menu"
  },
  {
    "_id": "59f0e01aab82dd1023720d72",
    "_courseId": "59f0e01aab82dd1023720d6f",
    "_parentId": "5a04c48765cac9632236a00e",
    "_sortOrder": 3,
    "__v": 0,
    "_refId": "598be54337049e0b5a00547c",
    "displayTitle": "Project: Call Center Learning Design",
    "description": "<p>This learner experience was designed to introduce call center support staff to a new customer retention initiative aimed at decreasing the Company's overall churn rate.</p>",
    "duration": "5 min",
    "_swipeMenu": {
      "_shouldShowProgressBarsOnMenus": true,
      "_mobileBackgroundImage": {
        "_repeat": false,
        "_fixed": false,
        "_position": "center",
        "_size": "cover"
      },
      "_backgroundImage": {
        "_repeat": false,
        "_fixed": false,
        "_position": "center",
        "_size": "cover"
      },
      "_heroImage": {
        "_contentWidth": 70,
        "textAlignment": "left",
        "layout": "center"
      },
      "_shouldHideDisabledControl": false,
      "_shouldShowControlsOnHover": false,
      "_shouldAlwaysShowItems": false,
      "_shouldShowControlsOnBottom": false,
      "_shouldDisableItemScaling": false,
      "_shouldDisableDetailOnHover": false
    },
    "_standardMenu": {
      "_shouldShowIconOnMenuItems": true,
      "_shouldShowProgressBarsOnMenus": true,
      "_mobileBackgroundImage": {
        "_repeat": false,
        "_fixed": false,
        "_position": "center",
        "_size": "cover"
      },
      "_backgroundImage": {
        "_repeat": false,
        "_fixed": false,
        "_position": "center",
        "_size": "cover"
      },
      "_heroImage": {
        "_contentWidth": 70,
        "textAlignment": "left",
        "layout": "center"
      }
    },
    "_mapMenu": {
      "_position": {
        "_top": 50,
        "_left": 50
      }
    },
    "_coverMenu": {
      "_shouldShowProgressBarsOnMenus": true,
      "_coverButtonText": "View"
    },
    "_boxMenu": {
      "_shouldShowProgressBarsOnMenus": true,
      "_itemsPerRowMedium": 2,
      "_itemsPerRowLarge": 2,
      "_mobileBackgroundImage": {
        "_repeat": false,
        "_fixed": false,
        "_position": "center",
        "_size": "cover"
      },
      "_backgroundImage": {
        "_repeat": false,
        "_fixed": false,
        "_position": "center",
        "_size": "cover"
      },
      "_heroImage": {
        "_contentWidth": 70,
        "textAlignment": "left",
        "layout": "center"
      },
      "src": {
        "_size": "small",
        "_type": "image",
        "_extension": "jpeg",
        "_id": "59f128c8ab82dd1023720f27"
      }
    },
    "_contentLocking": {
      "_requiredAmount": 0,
      "_requiredCompleteIds": [],
      "_shouldDisableNotifyOnUnlock": false,
      "_lockingType": "contentObject",
      "_isEnabled": false
    },
    "_mobileBackgroundImage": {
      "_repeat": false,
      "_fixed": false,
      "_position": "center",
      "_size": "cover"
    },
    "_backgroundImage": {
      "_repeat": false,
      "_fixed": false,
      "_position": "center",
      "_size": "cover"
    },
    "_heroImage": {
      "title": "Call Center Learning Design Project",
      "body": "<p>How do you teach call center employees tools and strategies that will convince subscribers to change their minds and continue their subscriptions?</p>",
      "_floatingGraphic": {
        "_hideOnMobile": false,
        "_offset": {
          "_left": "0",
          "_top": "0"
        },
        "_position": "bottom-right"
      },
      "_graphic": {
        "_small": {
          "src": {
            "_id": "59f13d30ab82dd1023720fa5",
            "_extension": "jpeg",
            "_type": "image",
            "_size": "small"
          }
        },
        "_large": {
          "src": {
            "_size": "large",
            "_type": "image",
            "_extension": "jpeg",
            "_id": "59f13d30ab82dd1023720fa5"
          }
        },
        "_extraLarge": {
          "src": {
            "_size": "extraLarge",
            "_type": "image",
            "_extension": "jpeg",
            "_id": "59f13d30ab82dd1023720fa5"
          }
        }
      },
      "_contentWidth": 80,
      "textAlignment": "center",
      "layout": "center",
      "_isEnabled": true
    },
    "_hidePageHeader": true,
    "_categories": [],
    "durationLabel": "Read Time",
    "linkText": "  VIEW   →",
    "_graphic": {
      "_offset": {
        "_left": "0",
        "_top": "0"
      },
      "_position": "bottom-right",
      "_isFloatingGraphic": false,
      "_hideOnMobile": false,
      "_isOverridingTheme": false
    },
    "title": "Project: Call Center Learning Design",
    "_type": "page",
    "_courseOrder": "4"
  },
  {
    "_id": "5a04c52965cac9632236a01a",
    "_courseId": "59f0e01aab82dd1023720d6f",
    "_parentId": "59f0e01aab82dd1023720d6f",
    "_sortOrder": 3,
    "__v": 0,
    "_refId": "5a04c52965cac9632236a01a",
    "displayTitle": "Gallery<br>",
    "_swipeMenu": {
      "_shouldShowProgressBarsOnMenus": true,
      "_mobileBackgroundImage": {
        "_repeat": false,
        "_fixed": false,
        "_position": "center",
        "_size": "cover"
      },
      "_backgroundImage": {
        "_repeat": false,
        "_fixed": false,
        "_position": "center",
        "_size": "cover"
      },
      "_heroImage": {
        "_contentWidth": 70,
        "textAlignment": "left",
        "layout": "center"
      },
      "_shouldHideDisabledControl": false,
      "_shouldShowControlsOnHover": false,
      "_shouldAlwaysShowItems": false,
      "_shouldShowControlsOnBottom": false,
      "_shouldDisableItemScaling": false,
      "_shouldDisableDetailOnHover": false
    },
    "_standardMenu": {
      "_shouldShowIconOnMenuItems": true,
      "_shouldShowProgressBarsOnMenus": true,
      "_mobileBackgroundImage": {
        "_repeat": false,
        "_fixed": false,
        "_position": "center",
        "_size": "cover"
      },
      "_backgroundImage": {
        "_repeat": false,
        "_fixed": false,
        "_position": "center",
        "_size": "cover"
      },
      "_heroImage": {
        "_contentWidth": 70,
        "textAlignment": "left",
        "layout": "center"
      }
    },
    "_mapMenu": {
      "_position": {
        "_top": 50,
        "_left": 50
      }
    },
    "_coverMenu": {
      "_shouldShowProgressBarsOnMenus": true,
      "_coverButtonText": "View"
    },
    "_boxMenu": {
      "_shouldShowProgressBarsOnMenus": true,
      "_itemsPerRowMedium": 2,
      "_itemsPerRowLarge": 2,
      "_mobileBackgroundImage": {
        "_repeat": false,
        "_fixed": false,
        "_position": "center",
        "_size": "cover"
      },
      "_backgroundImage": {
        "_repeat": false,
        "_fixed": false,
        "_position": "center",
        "_size": "cover"
      },
      "_heroImage": {
        "_contentWidth": 70,
        "textAlignment": "left",
        "layout": "center"
      },
      "src": {
        "_size": "small",
        "_type": "image",
        "_extension": "png",
        "_id": "5a05181d65cac9632236a08f"
      }
    },
    "_contentLocking": {
      "_requiredAmount": 0,
      "_requiredCompleteIds": [],
      "_shouldDisableNotifyOnUnlock": false,
      "_lockingType": "contentObject",
      "_isEnabled": false
    },
    "_mobileBackgroundImage": {
      "_repeat": false,
      "_fixed": false,
      "_position": "center",
      "_size": "cover"
    },
    "_backgroundImage": {
      "_repeat": false,
      "_fixed": false,
      "_position": "center",
      "_size": "cover"
    },
    "_heroImage": {
      "_floatingGraphic": {
        "_hideOnMobile": false,
        "_offset": {
          "_left": "0",
          "_top": "0"
        },
        "_position": "bottom-right"
      },
      "_contentWidth": 70,
      "textAlignment": "left",
      "layout": "center",
      "_isEnabled": false
    },
    "_hidePageHeader": false,
    "_categories": [],
    "durationLabel": "Duration",
    "linkText": "View",
    "_graphic": {
      "_offset": {
        "_left": "0",
        "_top": "0"
      },
      "_position": "bottom-right",
      "_isFloatingGraphic": false,
      "_hideOnMobile": false,
      "_isOverridingTheme": false
    },
    "title": "Gallery",
    "_type": "page",
    "_courseOrder": "5"
  }
]
