{
  "_id": "58c30bf0bc1025627e602074",
  "_type": "image",
  "description": "",
  "title": "Diamond",
  "_sizes": {
    "extraLarge": false,
    "large": false,
    "small": true
  },
  "_extension": "png"
}
