{
  "_id": "581720440743116d3685eaec",
  "_type": "image",
  "_extension": "jpeg",
  "title": "hover 2",
  "description": "",
  "_sizes": {
    "small": true,
    "large": false,
    "extraLarge": false
  }
}
