{
  "_id": "58221d5ececc173191be5349",
  "_type": "image",
  "_extension": "png",
  "title": "2",
  "description": "",
  "_sizes": {
    "small": true,
    "large": true,
    "extraLarge": false
  }
}
