{
  "_id": "58165f340743116d3685e6bf",
  "_type": "image",
  "_extension": "jpeg",
  "title": "No",
  "description": "",
  "_sizes": {
    "small": true,
    "large": false,
    "extraLarge": false
  }
}
